## Interface: 80000
## Title: |cff99aaffAuranomicon|r
## Author: Digorath
## Version: v0.0.1
## SavedVariables: Auranomicon_DB

## Notes: Helps you analyze occurences of buffs and debuffs post-combat.

Core.lua
Auranomicon.xml